X,NumbersElements,PropertyDamage,Belts,Mujeres,Hombres,GOLD,BLUE  DARK,WHITE,BLUE,YELLOW,BEIGE,BLUE  LIGHT,GREEN  LGT,MULTICOLOR, CREAM,TAN,ORANGE,CHROME,SILVER,BLACK,PURPLE,GREEN  DK,RED,BROWN,GREEN,N/A,MAROON,BRONZE,GRAY,labelJerarquic
0,5937,11,428,301,5636,2,20,64,60,2,1,11,3,0,0,7,1,1,73,92,0,5,37,5,41,0,9,1,42,3
1,5937,4,124,62,5875,5,2,20,5,0,0,1,4,0,0,0,0,0,18,18,0,1,9,0,14,0,4,1,22,1
2,5937,4,295,222,5715,4,10,26,56,0,0,8,12,0,0,6,2,0,74,63,1,4,26,6,10,0,4,0,36,2
3,5937,17,526,271,5666,7,18,59,76,0,1,29,8,0,0,6,3,0,94,57,0,13,38,2,46,0,18,3,52,3
4,5937,0,112,78,5859,0,3,13,22,0,0,1,1,0,1,3,1,0,20,21,0,0,8,0,9,0,6,0,11,1
5,5937,9,565,367,5570,11,17,78,97,0,1,7,5,0,0,8,0,0,118,76,1,9,27,5,61,0,11,2,54,3
6,5937,6,496,346,5591,8,11,62,94,0,7,23,15,0,0,9,1,0,93,58,0,1,41,0,36,0,11,0,43,2
7,5937,8,516,378,5559,3,16,68,48,1,4,5,9,0,0,8,2,0,127,90,1,12,54,0,47,0,13,1,42,3
8,5937,8,424,293,5644,17,10,56,60,1,13,10,14,0,0,2,0,0,78,66,0,6,36,5,27,0,13,0,47,2
9,5937,20,662,361,5576,7,15,90,81,1,3,38,24,0,0,6,0,0,132,68,0,21,54,3,37,0,12,2,81,3
10,5937,15,883,557,5380,4,18,110,139,2,7,13,18,2,0,5,3,0,173,134,0,12,103,5,67,0,27,4,72,4
11,5937,6,429,268,5669,2,7,65,53,0,0,11,7,0,0,4,0,0,75,57,0,4,38,6,46,0,15,3,38,2
12,5937,6,166,102,5835,2,9,20,18,0,2,2,4,0,0,0,0,0,33,15,0,4,26,0,12,0,7,1,15,1
